…
  test_result <- t.test(data[["x"]]) 
  tidy_result <-broom::tidy(test_result) 
}

normal_df_zero=
  expand_grid(
    mean_size=c(0),
    iter=1:5000,
  )|> 
  mutate(estimate_df=map(mean_size,t_test)) |> unnest(estimate_df)|> select(estimate,p.value) 

normal_df_zero 
```

    ## # A tibble: 5,000 × 2
    ##    estimate p.value
    ##       <dbl>   <dbl>
    ##  1  -0.236   0.794 
    ##  2   0.892   0.252 
    ##  3   0.122   0.879 
    ##  4  -0.469   0.575 
    ##  5  -0.918   0.388 
    ##  6   0.769   0.379 
    ##  7   0.0735  0.934 
    ##  8  -0.448   0.578 
    ##  9   0.254   0.789 
    ## 10   1.68    0.0483
    ## # ℹ 4,990 more rows

- Step 2: Repeat the above for μ={1,2,3,4,5,6}

``` r
normal_df=expand_grid(
    mean_size=c(0,1,2,3,4,5,6),
    iter=1:5000,
  )|> 
  mutate(estimate_df=map(mean_size,t_test)) |> unnest(estimate_df)|> select(mean_size,estimate,p.value) 

normal_df
```

    ## # A tibble: 35,000 × 3
    ##    mean_size estimate p.value
    ##        <dbl>    <dbl>   <dbl>
    ##  1         0  -0.664   0.528 
    ##  2         0  -1.36    0.181 
    ##  3         0   1.88    0.0268
    ##  4         0  -0.0326  0.971 
    ##  5         0   0.644   0.418 
    ##  6         0   0.873   0.309 
    ##  7         0  -0.485   0.530 
    ##  8         0  -0.854   0.464 
    ##  9         0   2.29    0.0147
    ## 10         0  -1.70    0.109 
    ## # ℹ 34,990 more rows
…
